project0.2/ALU.vcd
$date
	Sat Dec 21 18:01:05 2024
$end
$version
	Icarus Verilog
$end
$timescale
	1s
$end
$scope module ALUTB $end
$var wire 1 ! overflow $end
$var wire 8 " Y [7:0] $end
$var wire 1 # CarryOUT $end
$var reg 4 $ A [3:0] $end
$var reg 4 % B [3:0] $end
$var reg 1 & CarryIN $end
$var reg 3 ' opCodeA [2:0] $end
$scope module uut $end
$var wire 4 ( A [3:0] $end
$var wire 4 ) B [3:0] $end
$var wire 1 & CarryIN $end
$var wire 3 * opCodeA [2:0] $end
$var wire 4 + wireY [3:0] $end
$var wire 8 , wireM [7:0] $end
$var wire 4 - wireLA [3:0] $end
$var wire 4 . sub_Y [3:0] $end
$var wire 4 / resultX [3:0] $end
$var wire 4 0 resultO [3:0] $end
$var wire 4 1 resultA [3:0] $end
$var wire 1 ! overflow $end
$var wire 8 2 opwireM [7:0] $end
$var wire 8 3 opCode8 [7:0] $end
$var wire 4 4 lUOutput2 [3:0] $end
$var wire 4 5 lUOutput1 [3:0] $end
$var wire 4 6 add_Y [3:0] $end
$var wire 4 7 aUtemp2 [3:0] $end
$var wire 4 8 aUtemp1 [3:0] $end
$var wire 8 9 Y [7:0] $end
$var wire 1 # CarryOUT $end
$scope module aU $end
$var wire 4 : A [3:0] $end
$var wire 4 ; B [3:0] $end
$var wire 1 & CarryIN $end
$var wire 1 # CarryOUT $end
$var wire 2 < opCode [1:0] $end
$var wire 1 ! overflow $end
$var wire 4 = sub_Y [3:0] $end
$var wire 4 > subY [3:0] $end
$var wire 1 ? overflowADD $end
$var wire 4 @ add_Y [3:0] $end
$var wire 4 A addY [3:0] $end
$var wire 1 B CarryOUTSUB $end
$var wire 1 C CarryOUTADD $end
$scope module a1 $end
$var wire 4 D A [3:0] $end
$var wire 4 E B [3:0] $end
$var wire 1 & CarryIN $end
$var wire 1 ? overflow $end
$var wire 4 F Y [3:0] $end
$var wire 1 C CarryOUT $end
$var wire 3 G Carry4 [2:0] $end
$scope module f0 $end
$var wire 1 H A $end
$var wire 1 I B $end
$var wire 1 & Carry $end
$var wire 1 J CarryO $end
$var wire 1 K xor1 $end
$var wire 1 L and2 $end
$var wire 1 M and1 $end
$var wire 1 N Sum $end
$scope module h1 $end
$var wire 1 H A $end
$var wire 1 I B $end
$var wire 1 M Carry $end
$var wire 1 K Sum $end
$upscope $end
$scope module h2 $end
$var wire 1 K A $end
$var wire 1 & B $end
$var wire 1 L Carry $end
$var wire 1 N Sum $end
$upscope $end
$upscope $end
$scope module f1 $end
$var wire 1 O A $end
$var wire 1 P B $end
$var wire 1 Q Carry $end
$var wire 1 R CarryO $end
$var wire 1 S xor1 $end
$var wire 1 T and2 $end
$var wire 1 U and1 $end
$var wire 1 V Sum $end
$scope module h1 $end
$var wire 1 O A $end
$var wire 1 P B $end
$var wire 1 U Carry $end
$var wire 1 S Sum $end
$upscope $end
$scope module h2 $end
$var wire 1 S A $end
$var wire 1 Q B $end
$var wire 1 T Carry $end
$var wire 1 V Sum $end
$upscope $end
$upscope $end
$scope module f2 $end
$var wire 1 W A $end
$var wire 1 X B $end
$var wire 1 Y Carry $end
$var wire 1 Z CarryO $end
$var wire 1 [ xor1 $end
$var wire 1 \ and2 $end
$var wire 1 ] and1 $end
$var wire 1 ^ Sum $end
$scope module h1 $end
$var wire 1 W A $end
$var wire 1 X B $end
$var wire 1 ] Carry $end
$var wire 1 [ Sum $end
$upscope $end
$scope module h2 $end
$var wire 1 [ A $end
$var wire 1 Y B $end
$var wire 1 \ Carry $end
$var wire 1 ^ Sum $end
$upscope $end
$upscope $end
$scope module f3 $end
$var wire 1 _ A $end
$var wire 1 ` B $end
$var wire 1 a Carry $end
$var wire 1 C CarryO $end
$var wire 1 b xor1 $end
$var wire 1 c and2 $end
$var wire 1 d and1 $end
$var wire 1 e Sum $end
$scope module h1 $end
$var wire 1 _ A $end
$var wire 1 ` B $end
$var wire 1 d Carry $end
$var wire 1 b Sum $end
$upscope $end
$scope module h2 $end
$var wire 1 b A $end
$var wire 1 a B $end
$var wire 1 c Carry $end
$var wire 1 e Sum $end
$upscope $end
$upscope $end
$upscope $end
$scope module s1 $end
$var wire 4 f A [3:0] $end
$var wire 4 g B [3:0] $end
$var wire 1 & BorrowIN $end
$var wire 4 h tempB [3:0] $end
$var wire 4 i Y [3:0] $end
$var wire 1 B BorrowOUT $end
$scope module f0 $end
$var wire 1 j A $end
$var wire 1 k B $end
$var wire 1 & BorrowIN $end
$var wire 1 l BorrowOut $end
$var wire 1 m tempD $end
$var wire 1 n tempB2 $end
$var wire 1 o tempB1 $end
$var wire 1 p Difference $end
$scope module hf1 $end
$var wire 1 j A $end
$var wire 1 k B $end
$var wire 1 o Borrow $end
$var wire 1 m Difference $end
$var wire 1 q notA $end
$upscope $end
$scope module hf2 $end
$var wire 1 m A $end
$var wire 1 & B $end
$var wire 1 n Borrow $end
$var wire 1 p Difference $end
$var wire 1 r notA $end
$upscope $end
$upscope $end
$scope module f1 $end
$var wire 1 s A $end
$var wire 1 t B $end
$var wire 1 u BorrowIN $end
$var wire 1 v BorrowOut $end
$var wire 1 w tempD $end
$var wire 1 x tempB2 $end
$var wire 1 y tempB1 $end
$var wire 1 z Difference $end
$scope module hf1 $end
$var wire 1 s A $end
$var wire 1 t B $end
$var wire 1 y Borrow $end
$var wire 1 w Difference $end
$var wire 1 { notA $end
$upscope $end
$scope module hf2 $end
$var wire 1 w A $end
$var wire 1 u B $end
$var wire 1 x Borrow $end
$var wire 1 z Difference $end
$var wire 1 | notA $end
$upscope $end
$upscope $end
$scope module f2 $end
$var wire 1 } A $end
$var wire 1 ~ B $end
$var wire 1 !" BorrowIN $end
$var wire 1 "" BorrowOut $end
$var wire 1 #" tempD $end
$var wire 1 $" tempB2 $end
$var wire 1 %" tempB1 $end
$var wire 1 &" Difference $end
$scope module hf1 $end
$var wire 1 } A $end
$var wire 1 ~ B $end
$var wire 1 %" Borrow $end
$var wire 1 #" Difference $end
$var wire 1 '" notA $end
$upscope $end
$scope module hf2 $end
$var wire 1 #" A $end
$var wire 1 !" B $end
$var wire 1 $" Borrow $end
$var wire 1 &" Difference $end
$var wire 1 (" notA $end
$upscope $end
$upscope $end
$scope module f3 $end
$var wire 1 )" A $end
$var wire 1 *" B $end
$var wire 1 +" BorrowIN $end
$var wire 1 B BorrowOut $end
$var wire 1 ," tempD $end
$var wire 1 -" tempB2 $end
$var wire 1 ." tempB1 $end
$var wire 1 /" Difference $end
$scope module hf1 $end
$var wire 1 )" A $end
$var wire 1 *" B $end
$var wire 1 ." Borrow $end
$var wire 1 ," Difference $end
$var wire 1 0" notA $end
$upscope $end
$scope module hf2 $end
$var wire 1 ," A $end
$var wire 1 +" B $end
$var wire 1 -" Borrow $end
$var wire 1 /" Difference $end
$var wire 1 1" notA $end
$upscope $end
$upscope $end
$upscope $end
$upscope $end
$scope module lU $end
$var wire 4 2" A [3:0] $end
$var wire 4 3" B [3:0] $end
$var wire 3 4" opCode [2:0] $end
$var wire 4 5" xor1 [3:0] $end
$var wire 4 6" resultX [3:0] $end
$var wire 4 7" resultO [3:0] $end
$var wire 4 8" resultA [3:0] $end
$var wire 4 9" or1 [3:0] $end
$var wire 4 :" and1 [3:0] $end
$upscope $end
$scope module mU $end
$var wire 4 ;" A [3:0] $end
$var wire 4 <" B [3:0] $end
$var wire 1 =" overflow2 $end
$var wire 1 >" overflow1 $end
$var wire 1 ?" overflow0 $end
$var wire 4 @" b0 [3:0] $end
$var wire 4 A" a2 [3:0] $end
$var wire 4 B" a1 [3:0] $end
$var wire 4 C" a0 [3:0] $end
$var wire 8 D" Y [7:0] $end
$var wire 5 E" S2 [4:0] $end
$var wire 5 F" S1 [4:0] $end
$var wire 5 G" S0 [4:0] $end
$scope module add0 $end
$var wire 4 H" A [3:0] $end
$var wire 4 I" B [3:0] $end
$var wire 1 J" CarryIN $end
$var wire 1 ?" overflow $end
$var wire 4 K" Y [3:0] $end
$var wire 1 L" CarryOUT $end
$var wire 3 M" Carry4 [2:0] $end
$scope module f0 $end
$var wire 1 N" A $end
$var wire 1 O" B $end
$var wire 1 J" Carry $end
$var wire 1 P" CarryO $end
$var wire 1 Q" xor1 $end
$var wire 1 R" and2 $end
$var wire 1 S" and1 $end
$var wire 1 T" Sum $end
$scope module h1 $end
$var wire 1 N" A $end
$var wire 1 O" B $end
$var wire 1 S" Carry $end
$var wire 1 Q" Sum $end
$upscope $end
$scope module h2 $end
$var wire 1 Q" A $end
$var wire 1 J" B $end
$var wire 1 R" Carry $end
$var wire 1 T" Sum $end
$upscope $end
$upscope $end
$scope module f1 $end
$var wire 1 U" A $end
$var wire 1 V" B $end
$var wire 1 W" Carry $end
$var wire 1 X" CarryO $end
$var wire 1 Y" xor1 $end
$var wire 1 Z" and2 $end
$var wire 1 [" and1 $end
$var wire 1 \" Sum $end
$scope module h1 $end
$var wire 1 U" A $end
$var wire 1 V" B $end
$var wire 1 [" Carry $end
$var wire 1 Y" Sum $end
$upscope $end
$scope module h2 $end
$var wire 1 Y" A $end
$var wire 1 W" B $end
$var wire 1 Z" Carry $end
$var wire 1 \" Sum $end
$upscope $end
$upscope $end
$scope module f2 $end
$var wire 1 ]" A $end
$var wire 1 ^" B $end
$var wire 1 _" Carry $end
$var wire 1 `" CarryO $end
$var wire 1 a" xor1 $end
$var wire 1 b" and2 $end
$var wire 1 c" and1 $end
$var wire 1 d" Sum $end
$scope module h1 $end
$var wire 1 ]" A $end
$var wire 1 ^" B $end
$var wire 1 c" Carry $end
$var wire 1 a" Sum $end
$upscope $end
$scope module h2 $end
$var wire 1 a" A $end
$var wire 1 _" B $end
$var wire 1 b" Carry $end
$var wire 1 d" Sum $end
$upscope $end
$upscope $end
$scope module f3 $end
$var wire 1 e" A $end
$var wire 1 f" B $end
$var wire 1 g" Carry $end
$var wire 1 L" CarryO $end
$var wire 1 h" xor1 $end
$var wire 1 i" and2 $end
$var wire 1 j" and1 $end
$var wire 1 k" Sum $end
$scope module h1 $end
$var wire 1 e" A $end
$var wire 1 f" B $end
$var wire 1 j" Carry $end
$var wire 1 h" Sum $end
$upscope $end
$scope module h2 $end
$var wire 1 h" A $end
$var wire 1 g" B $end
$var wire 1 i" Carry $end
$var wire 1 k" Sum $end
$upscope $end
$upscope $end
$upscope $end
$scope module add1 $end
$var wire 4 l" A [3:0] $end
$var wire 4 m" B [3:0] $end
$var wire 1 n" CarryIN $end
$var wire 1 >" overflow $end
$var wire 4 o" Y [3:0] $end
$var wire 1 p" CarryOUT $end
$var wire 3 q" Carry4 [2:0] $end
$scope module f0 $end
$var wire 1 r" A $end
$var wire 1 s" B $end
$var wire 1 n" Carry $end
$var wire 1 t" CarryO $end
$var wire 1 u" xor1 $end
$var wire 1 v" and2 $end
$var wire 1 w" and1 $end
$var wire 1 x" Sum $end
$scope module h1 $end
$var wire 1 r" A $end
$var wire 1 s" B $end
$var wire 1 w" Carry $end
$var wire 1 u" Sum $end
$upscope $end
$scope module h2 $end
$var wire 1 u" A $end
$var wire 1 n" B $end
$var wire 1 v" Carry $end
$var wire 1 x" Sum $end
$upscope $end
$upscope $end
$scope module f1 $end
$var wire 1 y" A $end
$var wire 1 z" B $end
$var wire 1 {" Carry $end
$var wire 1 |" CarryO $end
$var wire 1 }" xor1 $end
$var wire 1 ~" and2 $end
$var wire 1 !# and1 $end
$var wire 1 "# Sum $end
$scope module h1 $end
$var wire 1 y" A $end
$var wire 1 z" B $end
$var wire 1 !# Carry $end
$var wire 1 }" Sum $end
$upscope $end
$scope module h2 $end
$var wire 1 }" A $end
$var wire 1 {" B $end
$var wire 1 ~" Carry $end
$var wire 1 "# Sum $end
$upscope $end
$upscope $end
$scope module f2 $end
$var wire 1 ## A $end
$var wire 1 $# B $end
$var wire 1 %# Carry $end
$var wire 1 &# CarryO $end
$var wire 1 '# xor1 $end
$var wire 1 (# and2 $end
$var wire 1 )# and1 $end
$var wire 1 *# Sum $end
$scope module h1 $end
$var wire 1 ## A $end
$var wire 1 $# B $end
$var wire 1 )# Carry $end
$var wire 1 '# Sum $end
$upscope $end
$scope module h2 $end
$var wire 1 '# A $end
$var wire 1 %# B $end
$var wire 1 (# Carry $end
$var wire 1 *# Sum $end
$upscope $end
$upscope $end
$scope module f3 $end
$var wire 1 +# A $end
$var wire 1 ,# B $end
$var wire 1 -# Carry $end
$var wire 1 p" CarryO $end
$var wire 1 .# xor1 $end
$var wire 1 /# and2 $end
$var wire 1 0# and1 $end
$var wire 1 1# Sum $end
$scope module h1 $end
$var wire 1 +# A $end
$var wire 1 ,# B $end
$var wire 1 0# Carry $end
$var wire 1 .# Sum $end
$upscope $end
$scope module h2 $end
$var wire 1 .# A $end
$var wire 1 -# B $end
$var wire 1 /# Carry $end
$var wire 1 1# Sum $end
$upscope $end
$upscope $end
$upscope $end
$scope module add2 $end
$var wire 4 2# A [3:0] $end
$var wire 4 3# B [3:0] $end
$var wire 1 4# CarryIN $end
$var wire 1 =" overflow $end
$var wire 4 5# Y [3:0] $end
$var wire 1 6# CarryOUT $end
$var wire 3 7# Carry4 [2:0] $end
$scope module f0 $end
$var wire 1 8# A $end
$var wire 1 9# B $end
$var wire 1 4# Carry $end
$var wire 1 :# CarryO $end
$var wire 1 ;# xor1 $end
$var wire 1 <# and2 $end
$var wire 1 =# and1 $end
$var wire 1 ># Sum $end
$scope module h1 $end
$var wire 1 8# A $end
$var wire 1 9# B $end
$var wire 1 =# Carry $end
$var wire 1 ;# Sum $end
$upscope $end
$scope module h2 $end
$var wire 1 ;# A $end
$var wire 1 4# B $end
$var wire 1 <# Carry $end
$var wire 1 ># Sum $end
$upscope $end
$upscope $end
$scope module f1 $end
$var wire 1 ?# A $end
$var wire 1 @# B $end
$var wire 1 A# Carry $end
$var wire 1 B# CarryO $end
$var wire 1 C# xor1 $end
$var wire 1 D# and2 $end
$var wire 1 E# and1 $end
$var wire 1 F# Sum $end
$scope module h1 $end
$var wire 1 ?# A $end
$var wire 1 @# B $end
$var wire 1 E# Carry $end
$var wire 1 C# Sum $end
$upscope $end
$scope module h2 $end
$var wire 1 C# A $end
$var wire 1 A# B $end
$var wire 1 D# Carry $end
$var wire 1 F# Sum $end
$upscope $end
$upscope $end
$scope module f2 $end
$var wire 1 G# A $end
$var wire 1 H# B $end
$var wire 1 I# Carry $end
$var wire 1 J# CarryO $end
$var wire 1 K# xor1 $end
$var wire 1 L# and2 $end
$var wire 1 M# and1 $end
$var wire 1 N# Sum $end
$scope module h1 $end
$var wire 1 G# A $end
$var wire 1 H# B $end
$var wire 1 M# Carry $end
$var wire 1 K# Sum $end
$upscope $end
$scope module h2 $end
$var wire 1 K# A $end
$var wire 1 I# B $end
$var wire 1 L# Carry $end
$var wire 1 N# Sum $end
$upscope $end
$upscope $end
$scope module f3 $end
$var wire 1 O# A $end
$var wire 1 P# B $end
$var wire 1 Q# Carry $end
$var wire 1 6# CarryO $end
$var wire 1 R# xor1 $end
$var wire 1 S# and2 $end
$var wire 1 T# and1 $end
$var wire 1 U# Sum $end
$scope module h1 $end
$var wire 1 O# A $end
$var wire 1 P# B $end
$var wire 1 T# Carry $end
$var wire 1 R# Sum $end
$upscope $end
$scope module h2 $end
$var wire 1 R# A $end
$var wire 1 Q# B $end
$var wire 1 S# Carry $end
$var wire 1 U# Sum $end
$upscope $end
$upscope $end
$upscope $end
$upscope $end
$scope module opCd $end
$var wire 3 V# A [2:0] $end
$var wire 1 W# and1 $end
$var wire 1 X# and2 $end
$var wire 1 Y# and3 $end
$var wire 1 Z# and4 $end
$var wire 1 [# notA $end
$var wire 1 \# notB $end
$var wire 1 ]# notC $end
$var wire 8 ^# opCode [7:0] $end
$upscope $end
$upscope $end
$upscope $end
$enddefinitions $end
#0
$dumpvars
b1 ^#
1]#
1\#
1[#
1Z#
0Y#
0X#
0W#
b0 V#
0U#
0T#
0S#
0R#
0Q#
0P#
0O#
0N#
0M#
0L#
0K#
0J#
0I#
0H#
0G#
0F#
0E#
0D#
0C#
0B#
0A#
0@#
0?#
0>#
0=#
0<#
0;#
0:#
09#
08#
b0 7#
06#
b0 5#
04#
b0 3#
b0 2#
01#
00#
0/#
0.#
0-#
0,#
0+#
0*#
0)#
0(#
0'#
0&#
0%#
0$#
0##
0"#
0!#
0~"
0}"
0|"
0{"
0z"
0y"
0x"
0w"
0v"
0u"
0t"
0s"
0r"
b0 q"
0p"
b0 o"
0n"
b0 m"
b0 l"
0k"
0j"
0i"
0h"
0g"
0f"
0e"
0d"
0c"
0b"
0a"
0`"
0_"
0^"
0]"
0\"
0["
0Z"
0Y"
0X"
0W"
0V"
0U"
0T"
0S"
0R"
0Q"
0P"
0O"
0N"
b0 M"
0L"
b0 K"
0J"
b0 I"
b0 H"
b0 G"
b0 F"
b0 E"
b0 D"
b0 C"
b0 B"
b0 A"
b0 @"
0?"
0>"
0="
b0 <"
b0 ;"
b0 :"
b0 9"
b0 8"
b0 7"
b0 6"
b0 5"
b0 4"
b0 3"
b0 2"
11"
10"
0/"
0."
0-"
0,"
0+"
0*"
0)"
1("
1'"
0&"
0%"
0$"
0#"
0""
0!"
0~
0}
1|
1{
0z
0y
0x
0w
0v
0u
0t
0s
1r
1q
0p
0o
0n
0m
0l
0k
0j
b0 i
bz000 h
b0 g
b0 f
0e
0d
0c
0b
0a
0`
0_
0^
0]
0\
0[
0Z
0Y
0X
0W
0V
0U
0T
0S
0R
0Q
0P
0O
0N
0M
0L
0K
0J
0I
0H
b0 G
b0 F
b0 E
b0 D
0C
0B
b0 A
b0 @
0?
b0 >
b0 =
b1 <
b0 ;
b0 :
b0 9
b0 8
b0 7
b0 6
b0 5
b0 4
b1 3
b0 2
b0 1
b0 0
b0 /
b0 .
b0 -
b0 ,
b0 +
b0 *
b0 )
b0 (
b0 '
0&
b0 %
b0 $
0#
b0 "
0!
$end
#5
b1111 "
b1111 9
b1111 -
b1111 +
b1111 8
b1111 6
b1111 @
1u
1!"
1+"
1!
1#
1N
1V
1^
b1111 A
b1111 F
1e
1p
0r
1l
0z
0|
1v
0&"
0("
bz111 h
1""
b1 >
b1 i
0/"
01"
1B
1K
1S
1[
1b
1m
1o
1w
1y
1#"
1%"
1,"
1."
b1111 9"
b1111 5"
1I
1P
1X
1`
1k
1t
1~
1*"
b1111 %
b1111 )
b1111 ;
b1111 E
b1111 g
b1111 3"
b1111 <"
#10
1z
1&"
b1111 >
b1111 i
1/"
0u
0!"
0+"
0!
0#
0l
0v
bz000 h
0""
0B
0o
0y
0%"
0."
0q
0{
0'"
00"
0I
0P
0X
0`
0k
0t
0~
0*"
1H
1O
1W
1_
1j
1s
1}
1)"
b0 %
b0 )
b0 ;
b0 E
b0 g
b0 3"
b0 <"
b1111 $
b1111 (
b1111 :
b1111 D
b1111 f
b1111 2"
b1111 ;"
#15
1T#
0L#
1B
1P#
1-"
1(#
1D#
1+"
1{"
1%#
1p"
16#
b1111 "
b1111 9
1""
10#
1t"
1|"
0/#
0>"
0S#
0="
1$"
1,#
1w"
1!#
1-#
1A#
1I#
1Q#
b1111 -
1!"
1s"
1z"
b111 q"
1&#
1:#
1B#
b111 7#
1J#
1v
1L"
0)#
1=#
0E#
1M#
b1111 +
1x
1\"
1d"
1i"
0?"
0$#
19#
0@#
1H#
1u
1W"
1_"
1g"
b1011 m"
b1101 3#
b1111 8
1!
bz111 h
1l
1P"
1X"
b111 M"
1`"
b10110 G"
b110 K"
0k"
0x"
1"#
0*#
b11010 F"
b1010 o"
11#
0>#
0F#
1N#
b11100 E"
b1100 5#
1U#
1Y
1a
0?
1#
1n
1S"
1["
1c"
1h"
0u"
0}"
1'#
0.#
0;#
1C#
0K#
0R#
1Q
b1111 6
b1111 @
1R
1V
1Z
1^
1C
1e
1r
1z
1|
1&"
1("
1/"
11"
1O"
1V"
1^"
1N"
1U"
1]"
1e"
1r"
1y"
1##
1+#
18#
1?#
1G#
1O#
b111 G
1J
1M
0K
1U
0S
1]
0[
1d
0b
0m
0w
0#"
0,"
b1111 :"
b0 5"
b11100001 2
b11100001 D"
b111 @"
b111 I"
b1111 C"
b1111 H"
b1111 B"
b1111 l"
b1111 A"
b1111 2#
0L
b1111 A
b1111 F
1N
b1111 >
b1111 i
1p
1I
1P
1X
1`
1k
1t
1~
1*"
1&
b1111 %
b1111 )
b1111 ;
b1111 E
b1111 g
b1111 3"
b1111 <"
#20
0P#
06#
1>"
0="
0p"
09#
1@#
0Q#
0J#
1~"
0"#
0(#
1*#
0,#
0!#
1}"
1)#
0'#
0I#
1?"
0z"
1$#
1H#
b110001 2
b110001 D"
0A#
0B#
0L"
b101 m"
b110 3#
b0 7#
0:#
0>#
0D#
1F#
0L#
1N#
1b"
0d"
0i"
b1010 G"
b1010 K"
1k"
0/#
b1100 F"
b1100 o"
11#
0S#
b110 E"
b110 5#
0U#
0=#
0;#
1C#
0M#
1K#
1?
0c"
1a"
0h"
00#
0.#
0T#
0R#
08#
0?#
0G#
0C
0^"
0e"
0+#
0O#
0d
10"
b111 :"
b111 9"
b11 @"
b11 I"
b111 C"
b111 H"
b111 B"
b111 l"
b0 A"
b0 2#
0`
0*"
0_
0)"
b111 %
b111 )
b111 ;
b111 E
b111 g
b111 3"
b111 <"
b111 $
b111 (
b111 :
b111 D
b111 f
b111 2"
b111 ;"
#25
0N#
0K#
0H#
0!
0#
b0 "
b0 9
0B
01#
0>"
0/"
0-"
0-#
b0 -
0+"
0s"
0$#
0&#
0>#
b0 E"
b0 5#
0F#
0""
0k"
0?"
0;#
0C#
b0 7
b0 +
0&"
0$"
0\"
0g"
0z"
0%#
09#
0@#
0!"
0W"
0_"
0`"
b0 m"
0{"
0|"
b0 3#
b0 .
b0 =
b0 8
0v
0V
0^
0e
0?
0P"
b0 M"
0X"
0b"
b0 G"
b0 K"
0d"
b0 q"
0t"
0x"
0~"
0"#
0(#
b0 F"
b0 o"
0*#
0z
0x
0Q
0Y
0a
0S"
0["
0a"
0w"
0u"
0}"
0)#
0'#
b10 <
b0 6
b0 @
0u
0J
0R
b0 G
0Z
0O"
0V"
0N"
0U"
0]"
0r"
0y"
0##
0]#
b10 3
b10 ^#
bz000 h
0l
0M
0U
0]
1q
1{
1'"
b0 :"
b0 9"
b0 2
b0 D"
b0 @"
b0 I"
b0 C"
b0 H"
b0 B"
b0 l"
b0 A
b0 F
0N
b0 >
b0 i
0p
0n
0I
0P
0X
0k
0t
0~
0H
0O
0W
0j
0s
0}
b1 '
b1 *
b1 V#
0&
b0 %
b0 )
b0 ;
b0 E
b0 g
b0 3"
b0 <"
b0 $
b0 (
b0 :
b0 D
b0 f
b0 2"
b0 ;"
#30
b1 "
b1 9
b1 -
b1 +
b1 7
b1 .
b1 =
1u
1!"
1+"
1!
1#
1N
1V
1^
b1111 A
b1111 F
1e
1p
0r
1l
0z
0|
1v
0&"
0("
bz111 h
1""
b1 >
b1 i
0/"
01"
1B
1K
1S
1[
1b
1m
1o
1w
1y
1#"
1%"
1,"
1."
b1111 9"
b1111 5"
1I
1P
1X
1`
1k
1t
1~
1*"
b1111 %
b1111 )
b1111 ;
b1111 E
b1111 g
b1111 3"
b1111 <"
#35
b1111 "
b1111 9
b1111 -
b1111 +
b1111 7
b1111 .
b1111 =
1z
1&"
b1111 >
b1111 i
1/"
0u
0!"
0+"
0!
0#
0l
0v
bz000 h
0""
0B
0o
0y
0%"
0."
0q
0{
0'"
00"
0I
0P
0X
0`
0k
0t
0~
0*"
1H
1O
1W
1_
1j
1s
1}
1)"
b0 %
b0 )
b0 ;
b0 E
b0 g
b0 3"
b0 <"
b1111 $
b1111 (
b1111 :
b1111 D
b1111 f
b1111 2"
b1111 ;"
#40
1T#
0L#
1B
1P#
1-"
1(#
1D#
1+"
1{"
1%#
1p"
16#
b1111 "
b1111 9
1""
10#
1t"
1|"
0/#
0>"
0S#
0="
1$"
1,#
1w"
1!#
1-#
1A#
1I#
1Q#
b1111 -
1!"
1s"
1z"
b111 q"
1&#
1:#
1B#
b111 7#
1J#
1v
1L"
0)#
1=#
0E#
1M#
b1111 +
1x
1\"
1d"
1i"
0?"
0$#
19#
0@#
1H#
1u
1W"
1_"
1g"
b1011 m"
b1101 3#
b1111 7
1!
bz111 h
1l
1P"
1X"
b111 M"
1`"
b10110 G"
b110 K"
0k"
0x"
1"#
0*#
b11010 F"
b1010 o"
11#
0>#
0F#
1N#
b11100 E"
b1100 5#
1U#
1Y
1a
0?
1#
1n
1S"
1["
1c"
1h"
0u"
0}"
1'#
0.#
0;#
1C#
0K#
0R#
1Q
b1111 .
b1111 =
1R
1V
1Z
1^
1C
1e
1r
1z
1|
1&"
1("
1/"
11"
1O"
1V"
1^"
1N"
1U"
1]"
1e"
1r"
1y"
1##
1+#
18#
1?#
1G#
1O#
b111 G
1J
1M
0K
1U
0S
1]
0[
1d
0b
0m
0w
0#"
0,"
b1111 :"
b0 5"
b11100001 2
b11100001 D"
b111 @"
b111 I"
b1111 C"
b1111 H"
b1111 B"
b1111 l"
b1111 A"
b1111 2#
0L
b1111 A
b1111 F
1N
b1111 >
b1111 i
1p
1I
1P
1X
1`
1k
1t
1~
1*"
1&
b1111 %
b1111 )
b1111 ;
b1111 E
b1111 g
b1111 3"
b1111 <"
#45
1="
06#
0A#
b111 "
b111 9
0P#
b110 7#
0:#
1>#
0D#
0F#
1>"
0=#
1;#
1E#
0C#
b111 -
0p"
09#
1@#
b111 +
1~"
0"#
0(#
1*#
0L#
1N#
0,#
0!#
1}"
1)#
0'#
1M#
0K#
b111 7
1?"
0z"
1$#
1H#
b1101001 2
b1101001 D"
0L"
b101 m"
b110 3#
b111 .
b111 =
1b"
0d"
0i"
b1010 G"
b1010 K"
1k"
0/#
b1100 F"
b1100 o"
11#
0S#
b1101 E"
b1101 5#
1U#
0-"
0c"
1a"
0h"
00#
0.#
0T#
0R#
1c
b111 A
b111 F
0e
b111 >
b111 i
0/"
01"
1."
0^"
0e"
0+#
0O#
0d
1b
1,"
10"
b111 :"
b1000 5"
b11 @"
b11 I"
b111 C"
b111 H"
b111 B"
b111 l"
b111 A"
b111 2#
0_
0)"
b111 $
b111 (
b111 :
b111 D
b111 f
b111 2"
b111 ;"
#50
0H#
0#
01#
0>"
0-#
0U#
0="
0+"
0s"
0$#
0&#
0Q#
b0 -
0""
0k"
0?"
0J#
b0 "
b0 9
0&"
0$"
0\"
0g"
0z"
0%#
09#
0@#
b0 +
0!"
0W"
0_"
0`"
b0 m"
0{"
0|"
b0 3#
0I#
b0 ,
0v
0V
0^
0P"
b0 M"
0X"
0b"
b0 G"
b0 K"
0d"
b0 q"
0t"
0x"
0~"
0"#
0(#
b0 F"
b0 o"
0*#
0>#
b0 7#
0B#
0F#
0L#
b0 E"
b0 5#
0N#
b0 7
0z
0x
0C
0-"
0!
0Q
0Y
0a
0S"
0["
0a"
0w"
0u"
0}"
0)#
0'#
0;#
0E#
0C#
0M#
0K#
0Z#
b0 <
b0 .
b0 =
0u
0c
0e
0/"
11"
0B
0J
0R
b0 G
0Z
0O"
0V"
0N"
0U"
0]"
0r"
0y"
0##
08#
0?#
0G#
0\#
1]#
1X#
b100 3
b100 ^#
bz000 h
0l
0b
0,"
0."
b0 5"
0M
0U
0]
1q
1{
1'"
b0 :"
b0 9"
b0 2
b0 D"
b0 @"
b0 I"
b0 C"
b0 H"
b0 B"
b0 l"
b0 A"
b0 2#
b0 A
b0 F
0N
b0 >
b0 i
0p
0n
0I
0P
0X
0`
0k
0t
0~
0*"
0H
0O
0W
0j
0s
0}
b10 '
b10 *
b10 V#
0&
b0 %
b0 )
b0 ;
b0 E
b0 g
b0 3"
b0 <"
b0 $
b0 (
b0 :
b0 D
b0 f
b0 2"
b0 ;"
#55
1u
1!"
1+"
1!
1#
1N
1V
1^
b1111 A
b1111 F
1e
1p
0r
1l
0z
0|
1v
0&"
0("
bz111 h
1""
b1 >
b1 i
0/"
01"
1B
1K
1S
1[
1b
1m
1o
1w
1y
1#"
1%"
1,"
1."
b1111 9"
b1111 5"
1I
1P
1X
1`
1k
1t
1~
1*"
b1111 %
b1111 )
b1111 ;
b1111 E
b1111 g
b1111 3"
b1111 <"
#60
1z
1&"
b1111 >
b1111 i
1/"
0u
0!"
0+"
0!
0#
0l
0v
bz000 h
0""
0B
0o
0y
0%"
0."
0q
0{
0'"
00"
0I
0P
0X
0`
0k
0t
0~
0*"
1H
1O
1W
1_
1j
1s
1}
1)"
b0 %
b0 )
b0 ;
b0 E
b0 g
b0 3"
b0 <"
b1111 $
b1111 (
b1111 :
b1111 D
b1111 f
b1111 2"
b1111 ;"
